"mdl"
9
"BaboonSeeker","appl","TRBW",1028,505,0
"Sub Project_Startup()
	Global baboons as Short
	Global bamboo as Short
End Sub"
1027
1028
""
""
""
""
""
""
"C:\NSBasic\Themes\Classic.pdb"
""
"bmpfile"
1
"Icon"
1027
".\baboon.jpg,.\baboon.jpg,.\baboon.jpg,.\baboon.jpg,.\baboon.jpg,.\baboonbig.jpg,.\baboonbig.jpg,.\baboonbig.jpg,.\baboonbig.jpg,.\baboonbig.jpg"
"bmpfile"
1
"IconSmall"
1028
".\baboonsmall.jpg,.\baboonsmall.jpg,.\baboonsmall.jpg,.\baboonsmall.jpg,.\baboonsmall.jpg,.\baboonsmall.jpg,.\baboonsmall.jpg,.\baboonsmall.jpg,.\baboonsmall.jpg,.\baboonsmall.jpg"
"resfile"
1
"Classic"
1004
"DBIM"
"C:\NSBasic\themes\Classic.pdb"
"mod"
" 2"
1013
".\Game.cod"
"Game.cod"
"vew"
4,1003,#FALSE#,#TRUE#,#TRUE#,0,0,0,160,160,0,#TRUE#,#TRUE#
"BaboonSeeker"
"Game"
"Sub Game_before()
	baboons = 0
	bamboo = 15 * Rand() + 5
	
	OutputBox.Text = ~You are the mighty baboon seeker. You have set off onto the beach with your baboon seeking backpack holding ~ + Str(bamboo) + ~ bamboo to use for seeking baboons~
End Sub"
0
""
""
0,0,0,0
"fld"
1
#TRUE#,#TRUE#,#TRUE#,#FALSE#,#TRUE#,80,#FALSE#,#FALSE#,#FALSE#
"obj"
3
"fld","CommandLine",1006,4,144,12,116,#TRUE#,0,"",0,0,0
""
"but"
1
#TRUE#,#TRUE#,#TRUE#
"obj"
3
"but","GoButton",1008,124,144,12,32,#TRUE#,0,"Go",0,0,0
"Sub object1008()
	parseCommand()
End Sub"
"fld"
1
#FALSE#,#FALSE#,#FALSE#,#FALSE#,#TRUE#,800,#FALSE#,#FALSE#,#FALSE#
"obj"
3
"fld","OutputBox",1009,0,16,124,160,#TRUE#,0,"",0,0,0
""
"vew"
4,1016,#FALSE#,#TRUE#,#TRUE#,0,0,0,160,160,0,#FALSE#,#TRUE#
"Game Over"
"Failure"
"Sub Form1016_Before()
	GameOverText.Text = ~Oh no! You have stumbled and dropped your baboon seeking backpack! As you certainly already know, you cannot seek baboons without a baboon seeking backpack!~
End Sub"
0
""
""
0,0,0,0
"fld"
1
#FALSE#,#FALSE#,#FALSE#,#FALSE#,#TRUE#,80,#FALSE#,#FALSE#,#FALSE#
"obj"
3
"fld","GameOverText",1018,0,16,104,160,#TRUE#,0,"",0,0,0
""
"but"
1
#TRUE#,#TRUE#,#TRUE#
"obj"
3
"but","Button1022",1022,30,136,12,100,#TRUE#,0,"Restart your journey",0,0,0
"Sub object1022()
	NextForm ~Game~
End Sub"
"end"
